{
  "extends": ["tslint:recommended", "tslint-react", "tslint-config-prettier"],
  "linterOptions": {
    "exclude": [
      "config/**/*.js",
      "node_modules/**/*.ts",
      "coverage/lcov-report/*.js"
    ]
  },
  "rules": {
    "ordered-imports": false,
    "interface-name": false,
    "member-ordering": false,
    "object-literal-sort-keys": false
  },
  "defaultSeverity": "warning"
}
