{
  "title": "User",
  "type": "object",
  "required": ["games", "info"],
  "properties": {
    "info": {
      "type": "object",
      "title": "Info",
      "properties": {
        "description": {
          "type": "string",
          "default": "",
          "format": "markdown"
        },
        "id": {
          "type": "string",
          "default": ""
        },
        "userName": {
          "type": "string",
          "default": ""
        },
        "isPro": {
          "type": "boolean",
          "default": false
        },
        "joinedDate": {
          "type": "object",
          "title": "Date",
          "properties": {
            "month": {
              "type": "string",
              "default": "Feb"
            },
            "year": {
              "type": "string",
              "default": "2019"
            }
          }
        },
        "location": {
          "type": "object",
          "title": "Location",
          "properties": {
            "city": {
              "type": "string",
              "default": ""
            },
            "state": {
              "type": "string",
              "default": ""
            }
          }
        },
        "noOfSuccessfulExchanges": {
          "type": "number",
          "default": 20
        },
        "rating": {
          "type": "object",
          "title": "Rating",
          "properties": {
            "negative": {
              "type": "number",
              "default": 0
            },
            "positive": {
              "type": "number",
              "default": 20
            }
          }
        },
        "userImageUrl": {
          "type": "string",
          "default": "https://www.redditstatic.com/avatars/avatar_default_08_FF66AC.png"
        }
      }
    },
    "games": {
      "type": "array",

      "title": "Games",
      "uniqueItems": true,
      "items": {
        "type": "object",
        "title": "Game",
        "properties": {
          "tradeType": {
            "type": "string",
            "enum": ["sale", "swap"],
            "default": "swap"
          },
          "imageUrl": {
            "type": "string",
            "default": ""
          },
          "name": {
            "type": "string",
            "default": ""
          },
          "id": {
            "type": "string",
            "default": ""
          },
          "description": {
            "type": "string",
            "default": "CIB",
            "format": "markdown"
          },
          "consoleType": {
            "type": "string",
            "enum": ["PlayStation 4", "PlayStation 3", "Switch"],
            "default": "PlayStation 4"
          }
        }
      }
    }
  }
}
